Credit_Card_Analysis
…
Customer_2$Month =   dmy(Customer_2$Month)

Customer_2$Months <- months(Customer_2$Month)

Customer_2$Year <- year(Customer_2$Month)

Customer_spend = Customer_2 %>%
  group_by(Customer_2$Year,Customer_2$Months) %>%
  summarise(avg_spend = mean(Customer_2$Amount))

## `summarise()` has grouped output by 'Customer_2$Year'. You can override using the `.groups` argument.

Customer_spend

## # A tibble: 30 x 3
## # Groups:   Customer_2$Year [3]
##    `Customer_2$Year` `Customer_2$Months` avg_spend
##                <dbl> <chr>                   <dbl>
##  1              2004 April                 146521.
##  2              2004 February              146521.
##  3              2004 January               146521.
##  4              2004 March                 146521.
##  5              2004 May                   146521.
##  6              2004 November              146521.
##  7              2004 September             146521.
##  8              2005 April                 146521.
##  9              2005 August                146521.
## 10              2005 December              146521.
## # ... with 20 more rows
…
#Age group between Age 35 - 65 is spending more money

#  i. Who are the top 10 customers in terms of repayment?

top10_repay = Customer_1 %>% group_by(Customer) %>% summarise( Amount = sum(Amount))

Top_10 = arrange(top10_repay,desc(Amount))
Top_10

## # A tibble: 100 x 2
##    Customer    Amount
##    <chr>        <dbl>
##  1 A61      10539143.
##  2 A60       9876291.
##  3 A13       9572001.
##  4 A43       8489871.
##  5 A45       8448335.
##  6 A12       8334760.
##  7 A14       7943269.
##  8 A44       7744730.
##  9 A39       7622483.
## 10 A42       7615461.
## # ... with 90 more rows
…
#4. Create graphs for
#a. Monthly comparison of total spends, city wise

Monthly_spend = Customer_2 %>%
                group_by(City,Months) %>%
                summarise(TotalSpends = sum(Amount))

## `summarise()` has grouped output by 'City'. You can override using the `.groups` argument.

Monthly_spend

## # A tibble: 96 x 3
## # Groups:   City [8]
##    City      Months   TotalSpends
##    <chr>     <chr>          <dbl>
##  1 BANGALORE April       4207980.
##  2 BANGALORE August       695062.
##  3 BANGALORE December     422167.
##  4 BANGALORE February    6734495.
##  5 BANGALORE January     9041797.
##  6 BANGALORE July        2228218.
##  7 BANGALORE June        1330686.
##  8 BANGALORE March       5362903.
##  9 BANGALORE May         6383115.
## 10 BANGALORE November    2260603.
## # ... with 86 more rows
…
#c. Comparison of monthly spend for each product (look for any seasonality
#                                                 that exists in terms of spend)

Monthly_spend_product = Customer_2 %>% 
  group_by(Product,Months) %>%
  summarise(TotalSpend = sum(Amount))

## `summarise()` has grouped output by 'Product'. You can override using the `.groups` argument.

Monthly_spend_product

## # A tibble: 36 x 3
## # Groups:   Product [3]
##    Product Months   TotalSpend
##    <chr>   <chr>         <dbl>
##  1 Gold    April     13170573.
##  2 Gold    August     4954030.
##  3 Gold    December   2332941.
##  4 Gold    February  24779180.
##  5 Gold    January   32413832.
##  6 Gold    July       5167416.
##  7 Gold    June       6538863.
##  8 Gold    March     19256972.
##  9 Gold    May       21548170.
## 10 Gold    November   9203267.
## # ... with 26 more rows
…
